<mxfile host="app.diagrams.net" modified="2023-10-26T15:29:08.733Z" agent="Mozilla/5.0 (Windows NT 10.0; Win64; x64) AppleWebKit/537.36 (KHTML, like Gecko) Chrome/118.0.0.0 Safari/537.36" version="22.0.8" etag="NAm5p-7N02wACs_9b_Qc" type="gitlab">
  <diagram name="第 1 页" id="jqN4U3SV2TBlt0ZGooVL">
    <mxGraphModel>
      <root>
        <mxCell id="0" />
        <mxCell id="1" parent="0" />
      </root>
    </mxGraphModel>
  </diagram>
</mxfile>
